Studying News Use with Computational Methods
…
---

# Calling the Pushshift API with R

Using some [Tidyverse](https://www.tidyverse.org/) functions - specifically, from the `purrr` package for functional programming - we can quickly transform the response to a rectangular dataframe:

```r
library(tidyverse)
fields <- c("id", "title", "created_utc", "permalink", "url")
ps_data %>% 
  map_dfr(magrittr::extract, fields)
```

```
## # A tibble: 100 x 5
##    id     title              created_utc permalink             url              
##    <chr>  <chr>                    <int> <chr>                 <chr>            
##  1 n16pfm Biden administrat~  1619709687 /r/news/comments/n16~ https://www.cbsn~
##  2 n15u35 Biden Tax Plan Le~  1619707290 /r/news/comments/n15~ https://www.wsj.~
##  3 n14vxm Biden Seeks Shift~  1619704570 /r/news/comments/n14~ https://www.nyti~
##  4 n14tp9 President Biden p~  1619704385 /r/news/comments/n14~ https://abcnews.~
##  5 n148h3 Indian-Americans ~  1619702541 /r/news/comments/n14~ http://news.meim~
##  6 n13nyb Women Make Histor~  1619700751 /r/news/comments/n13~ https://www.scra~
##  7 n12jtq &amp;#x27;White S~  1619696752 /r/news/comments/n12~ https://www.news~
##  8 n11j6p At 100 Days, Bide~  1619692414 /r/news/comments/n11~ https://newsnati~
##  9 n112x0 Ex-Trump aide Ste~  1619690395 /r/news/comments/n11~ https://apple.ne~
## 10 n10wv1 Joe Biden Unveils~  1619689554 /r/news/comments/n10~ https://www.rayz~
## # ... with 90 more rows
```
…
