Studying News Use with Computational Methods
…
---

# Using the MediaCloud API

For each word contained in our stories, this gives us an ID, the word stem, and the most common full word associated with this stem: 

```r
word_list
```

```
## # A tibble: 1,906 x 3
##    word_counts_id stem                 full                 
##             <dbl> <chr>                <chr>                
##  1              0 inhalteanbiet        inhalteanbieter      
##  2              1 ad                   ad                   
##  3              2 pflichten            pflichten            
##  4              3 reform               reform               
##  5              4 handvol              handvoll             
##  6              5 missbrauch           missbrauch           
##  7              6 gemeinsamen          gemeinsamen          
##  8              7 nrw                  nrw                  
##  9              8 öffentlich-rechtlich öffentlich-rechtliche
## 10              9 gegebenheiten        gegebenheiten        
## # ... with 1,896 more rows
```
…
# Using the MediaCloud API

We rectangle the word matrix:

```r
word_matrix <- word_matrix %>% 
    tibble::enframe(name = "stories_id", value = "word_counts") %>% 
    tidyr::unnest_longer(word_counts) %>% 
    dplyr::mutate(word_counts_id = as.integer(word_counts_id))

word_matrix
```

```
## # A tibble: 2,497 x 3
##    stories_id word_counts word_counts_id
##    <chr>            <int>          <int>
##  1 1427334496           1              0
##  2 1427334496           1              1
##  3 1427334496           1             10
##  4 1427334496           1            100
##  5 1427334496           1            101
##  6 1427334496           1            102
##  7 1427334496           1            103
##  8 1427334496           1            104
##  9 1427334496           1            105
## 10 1427334496           1            106
## # ... with 2,487 more rows
```
…
```r
tidy_matrix <- word_matrix %>% 
    dplyr::left_join(word_list)
```

```
## Joining, by = "word_counts_id"
```

```r
tidy_matrix
```

```
## # A tibble: 2,497 x 5
##    stories_id word_counts word_counts_id stem             full              
##    <chr>            <int>          <dbl> <chr>            <chr>             
##  1 1427334496           1              0 inhalteanbiet    inhalteanbieter   
##  2 1427334496           1              1 ad               ad                
##  3 1427334496           1             10 offenlegen       offenlegen        
##  4 1427334496           1            100 antworten        antworten         
##  5 1427334496           1            101 angeh            angehe            
##  6 1427334496           1            102 pflicht          pflicht           
##  7 1427334496           1            103 erfolg           erfolg            
##  8 1427334496           1            104 spiele-stream    spiele-streamer   
##  9 1427334496           1            105 milliardenschwer milliardenschwerer
## 10 1427334496           1            106 werben           werben            
## # ... with 2,487 more rows
```

---

# Using the MediaCloud API

Let's compare that to [one of the original stories](https://www.spiegel.de/netzwelt/netzpolitik/medienstaatsvertrag-fuer-youtube-und-co-die-geplanten-aenderungen-a-1292530.html#ref=rss):

```r
dplyr::filter(tidy_matrix, stories_id == 1427334496)
```

```
## # A tibble: 312 x 5
##    stories_id word_counts word_counts_id stem             full              
##    <chr>            <int>          <dbl> <chr>            <chr>             
##  1 1427334496           1              0 inhalteanbiet    inhalteanbieter   
##  2 1427334496           1              1 ad               ad                
##  3 1427334496           1             10 offenlegen       offenlegen        
##  4 1427334496           1            100 antworten        antworten         
##  5 1427334496           1            101 angeh            angehe            
##  6 1427334496           1            102 pflicht          pflicht           
##  7 1427334496           1            103 erfolg           erfolg            
##  8 1427334496           1            104 spiele-stream    spiele-streamer   
##  9 1427334496           1            105 milliardenschwer milliardenschwerer
## 10 1427334496           1            106 werben           werben            
## # ... with 302 more rows
```
…
---

# Example: NexisUni with `LexisNexisTools`

The result contains three dataframes, 1) meta information:

```r
texts@meta
```

```
## # A tibble: 100 x 10
##       ID Source_File Newspaper Date       Length Section Author Edition Headline
##    <int> <chr>       <chr>     <date>     <chr>  <chr>   <chr>  <lgl>   <chr>   
##  1     1 temp/nexis~ ZEIT-onl~ 2019-12-05 389 w~ Medien~ Johan~ NA      Ministe~
##  2     2 temp/nexis~ Newstex ~ NA         2233 ~ <NA>    Chris~ NA      Der neu~
##  3     3 temp/nexis~ taz, die~ 2020-10-30 763 w~ MEDIEN~ Peter~ NA      Bitte n~
##  4     4 temp/nexis~ taz, die~ 2006-11-09 386 w~ Nord A~ MARCO~ NA      Nord-Me~
##  5     5 temp/nexis~ Horizont  2019-10-30 513 w~ THEMA ~ Hein,~ NA      Regeln ~
##  6     6 temp/nexis~ dpa-AFX ~ 2020-10-28 235 w~ <NA>    <NA>   NA      Weg für~
##  7     7 temp/nexis~ Internet~ 2020-01-13 813 w~ MEINUN~ <NA>   NA      Kein sm~
##  8     8 temp/nexis~ Computer~ NA         1130 ~ SOCIAL~ [dal]  NA      MEDIENS~
##  9     9 temp/nexis~ dpa-AFX ~ 2020-04-27 542 w~ <NA>    <NA>   NA      ROUNDUP~
## 10    10 temp/nexis~ dpa-AFX ~ 2020-11-06 198 w~ <NA>    <NA>   NA      Regeln ~
## # ... with 90 more rows, and 1 more variable: Graphic <lgl>
```
---

# Example: NexisUni with `LexisNexisTools`

The result contains three dataframes, 2) all articles:

```r
texts@articles
```

```
## # A tibble: 100 x 2
##       ID Article                                                                
##    <int> <chr>                                                                  
##  1     1 " Sean Gallup  BERLIN, GERMANY - MAY 28: In this photo illustration a ~
##  2     2 "Mar 04, 2020( Wilde Beuger Solmecke Lawyers: http://www.wbs-law.de De~
##  3     3 "Von Peter Weissenburger Der Medienstaatsvertrag regelt künftig die Re~
##  4     4 "Grundsätzlich sind alle dafür, doch der Teufel liegt im Detail. Weil ~
##  5     5 "Veranstaltung: Medientage München München Deutschland Wenn alles glat~
##  6     6 "SCHWERIN (dpa-AFX) - Der neue Medienstaatsvertrag in Deutschland mit ~
##  7     7 "Nun ist der Medienstaatsvertrag also beschlossen. Doch erst bei genau~
##  8     8 "Statt zu Hause nach Feierabend einen TV-Sender einzuschalten, schauen~
##  9     9 "(neu: im letzten Absatz - wegen Corona-Krise keine Sitzung, sondern U~
## 10    10 "MAINZ (dpa-AFX) - Der neue Medienstaatsvertrag in Deutschland mit Reg~
## # ... with 90 more rows
```

---

# Example: NexisUni with `LexisNexisTools`

The result contains three dataframes, 3) all paragraphs of the articles separately:

```r
texts@paragraphs
```

```
## # A tibble: 736 x 3
##    Art_ID Par_ID Paragraph                                                      
##     <int>  <int> <chr>                                                          
##  1      1      1 " Sean Gallup"                                                 
##  2      1      2 " BERLIN, GERMANY - MAY 28: In this photo illustration a young~
##  3      1      3 "Der seit 1991 geltende Rundfunkstaatsvertrag soll durch einen~
##  4      1      4 "Hintergrund des neuen Vertrags ist der digitale Wandel. Der S~
##  5      1      5 "Mit dem Beschluss tritt der Medienstaatsvertrag noch nicht in~
##  6      1      6 "In dem Medienstaatsvertrag geht es nicht um die Höhe des Rund~
##  7      2      7 "Mar 04, 2020( Wilde Beuger Solmecke Lawyers: http://www.wbs-l~
##  8      2      8 "Zustzlich sind auch Internet-Suchmaschinen, Streaming-Anbiete~
##  9      3      9 "Von Peter Weissenburger"                                      
## 10      3     10 "Der Medienstaatsvertrag regelt künftig die Rechte und Pflicht~
## # ... with 726 more rows
```
…
