Studying News Use with Computational Methods
…
```r
guardian_tibble <- readRDS("data/guardian_sample_100.rds")
```

---

# The `tidytext` approach

```r
guardian_tibble
```

```
## # A tibble: 200 x 6
##       id title          body           url            date                pillar
##    <int> <chr>          <chr>          <chr>          <dttm>              <chr> 
##  1     1 Morrison’s ro~ Given the Coa~ https://www.t~ 2020-02-21 19:00:02 News  
##  2     2 Truck drives ~ A fuel semi-t~ https://www.t~ 2020-06-01 00:24:15 News  
##  3     3 Hong Kong blo~ Hong Kong has~ https://www.t~ 2020-05-19 08:53:48 News  
##  4     4 Bernie Sander~ Bernie Sander~ https://www.t~ 2020-02-12 18:15:09 News  
##  5     5 After years o~ “It’s hard to~ https://www.t~ 2020-03-30 16:30:28 News  
##  6     6 Worrying won'~ The most anno~ https://www.t~ 2020-03-06 10:00:33 News  
##  7     7 'Obamagate': ~ On his primet~ https://www.t~ 2020-05-14 17:29:48 News  
##  8     8 Climate crisi~ The independe~ https://www.t~ 2020-11-06 19:00:49 News  
##  9     9 Deportation o~ Deporting a N~ https://www.t~ 2020-11-24 17:23:40 News  
## 10    10 Tom Hunt obit~ In many respe~ https://www.t~ 2020-06-07 09:51:40 News  
## # ... with 190 more rows
```
…
---

# The `quanteda` approach

Use `docvars()` to access the document variables:

```r
as_tibble(docvars(guardian_corpus))
```

```
## # A tibble: 200 x 4
##    title                     url                      date                pillar
##    <chr>                     <chr>                    <dttm>              <chr> 
##  1 Morrison’s roadmap to em~ https://www.theguardian~ 2020-02-21 19:00:02 News  
##  2 Truck drives through cro~ https://www.theguardian~ 2020-06-01 00:24:15 News  
##  3 Hong Kong blocks Tiananm~ https://www.theguardian~ 2020-05-19 08:53:48 News  
##  4 Bernie Sanders wins New ~ https://www.theguardian~ 2020-02-12 18:15:09 News  
##  5 After years of drought, ~ https://www.theguardian~ 2020-03-30 16:30:28 News  
##  6 Worrying won't help: why~ https://www.theguardian~ 2020-03-06 10:00:33 News  
##  7 'Obamagate': Fox News fo~ https://www.theguardian~ 2020-05-14 17:29:48 News  
##  8 Climate crisis: more tha~ https://www.theguardian~ 2020-11-06 19:00:49 News  
##  9 Deportation of man with ~ https://www.theguardian~ 2020-11-24 17:23:40 News  
## 10 Tom Hunt obituary         https://www.theguardian~ 2020-06-07 09:51:40 News  
## # ... with 190 more rows
```

---

# Converting between `tidytext` and `quanteda`

Both packages work fine together. Use `tidytext::tidy()` at any time to convert `quanteda` objects to `tidytext`-style tibbles:

```r
tidy(guardian_corpus)
```

```
## # A tibble: 200 x 5
##    text             title            url              date                pillar
##    <chr>            <chr>            <chr>            <dttm>              <chr> 
##  1 Given the Coali~ Morrison’s road~ https://www.the~ 2020-02-21 19:00:02 News  
##  2 A fuel semi-tru~ Truck drives th~ https://www.the~ 2020-06-01 00:24:15 News  
##  3 Hong Kong has i~ Hong Kong block~ https://www.the~ 2020-05-19 08:53:48 News  
##  4 Bernie Sanders ~ Bernie Sanders ~ https://www.the~ 2020-02-12 18:15:09 News  
##  5 “It’s hard to p~ After years of ~ https://www.the~ 2020-03-30 16:30:28 News  
##  6 The most annoyi~ Worrying won't ~ https://www.the~ 2020-03-06 10:00:33 News  
##  7 On his primetim~ 'Obamagate': Fo~ https://www.the~ 2020-05-14 17:29:48 News  
##  8 The independent~ Climate crisis:~ https://www.the~ 2020-11-06 19:00:49 News  
##  9 Deporting a Nig~ Deportation of ~ https://www.the~ 2020-11-24 17:23:40 News  
## 10 In many respect~ Tom Hunt obitua~ https://www.the~ 2020-06-07 09:51:40 News  
## # ... with 190 more rows
```
…
The resulting tibble now has one row per word. Note that by default, this removes punctuation and converts all words to lowercase.

---

# Tokenization

```r
guardian_tibble_tokenized
```

```
## # A tibble: 151,589 x 6
##       id title              url                date                pillar word  
##    <int> <chr>              <chr>              <dttm>              <chr>  <chr> 
##  1     1 Morrison’s roadma~ https://www.thegu~ 2020-02-21 19:00:02 News   given 
##  2     1 Morrison’s roadma~ https://www.thegu~ 2020-02-21 19:00:02 News   the   
##  3     1 Morrison’s roadma~ https://www.thegu~ 2020-02-21 19:00:02 News   coali~
##  4     1 Morrison’s roadma~ https://www.thegu~ 2020-02-21 19:00:02 News   uncon~
##  5     1 Morrison’s roadma~ https://www.thegu~ 2020-02-21 19:00:02 News   track 
##  6     1 Morrison’s roadma~ https://www.thegu~ 2020-02-21 19:00:02 News   record
##  7     1 Morrison’s roadma~ https://www.thegu~ 2020-02-21 19:00:02 News   it    
##  8     1 Morrison’s roadma~ https://www.thegu~ 2020-02-21 19:00:02 News   is    
##  9     1 Morrison’s roadma~ https://www.thegu~ 2020-02-21 19:00:02 News   very  
## 10     1 Morrison’s roadma~ https://www.thegu~ 2020-02-21 19:00:02 News   very  
## # ... with 151,579 more rows
```
…
```r
guardian_lemma <- spacy_parse(guardian_corpus, lemma = TRUE,
                              pos = FALSE, entity = FALSE)
```

---

# Lemmatization

```r
guardian_lemma
```

```
## # A tibble: 175,395 x 5
##    doc_id sentence_id token_id token          lemma         
##    <chr>        <int>    <int> <chr>          <chr>         
##  1 1                1        1 Given          give          
##  2 1                1        2 the            the           
##  3 1                1        3 Coalition      Coalition     
##  4 1                1        4 ’s             ’s            
##  5 1                1        5 unconscionable unconscionable
##  6 1                1        6 track          track         
##  7 1                1        7 record         record        
##  8 1                1        8 ,              ,             
##  9 1                1        9 it             it            
## 10 1                1       10 is             be            
## # ... with 175,385 more rows
```
…
```r
guardian_pos <- spacy_parse(guardian_corpus, lemma = FALSE,
                            pos = TRUE, entity = FALSE)
```

---

# Part-of-speech tagging

```r
guardian_pos
```

```
## # A tibble: 175,395 x 5
##    doc_id sentence_id token_id token          pos  
##    <chr>        <int>    <int> <chr>          <chr>
##  1 1                1        1 Given          VERB 
##  2 1                1        2 the            DET  
##  3 1                1        3 Coalition      PROPN
##  4 1                1        4 ’s             PART 
##  5 1                1        5 unconscionable ADJ  
##  6 1                1        6 track          NOUN 
##  7 1                1        7 record         NOUN 
##  8 1                1        8 ,              PUNCT
##  9 1                1        9 it             PRON 
## 10 1                1       10 is             AUX  
## # ... with 175,385 more rows
```
…
---

# Named entity recognition

```r
guardian_ner %>% 
  filter(entity != "")
```

```
## # A tibble: 22,377 x 5
##    doc_id sentence_id token_id token     entity  
##    <chr>        <int>    <int> <chr>     <chr>   
##  1 1                1        2 the       ORG_B   
##  2 1                1        3 Coalition ORG_I   
##  3 1                1        4 ’s        ORG_I   
##  4 1                1       18 Morrison  PERSON_B
##  5 1                3        9 Scott     PERSON_B
##  6 1                3       10 Morrison  PERSON_I
##  7 1                4        6 Weetbix   ORG_B   
##  8 1                4       15 Morrison  PERSON_B
##  9 1                4       21 the       DATE_B  
## 10 1                4       22 coming    DATE_I  
## # ... with 22,367 more rows
```
…
The following steps are based on chapter 5 of the great book ["Supervised machine learning for text analysis in R"](https://smltar.com/embeddings.html) by Emil Hvitfeldt and Julia Silge.

---

# Word embeddings

First, note that word embeddings are usually trained on a huge corpus of documents, which also makes them very computationally expensive. For demonstration purposes, let's use a larger sample of the Guardian corpus, containing 10,000 articles:

```r
guardian_larger <- readRDS("temp/guardian_sample_2020.rds")
guardian_larger
```

```
## # A tibble: 10,000 x 6
##       id title          body           url            date                pillar
##    <int> <chr>          <chr>          <chr>          <dttm>              <chr> 
##  1     1 We know this ~ There is a me~ https://www.t~ 2020-01-01 00:09:23 Opini~
##  2     2 Mariah Carey'~ Mariah Carey’~ https://www.t~ 2020-01-01 00:34:18 Arts  
##  3     3 Australia wea~ Firefighters ~ https://www.t~ 2020-01-01 02:59:09 News  
##  4     4 TV tonight: S~ Dracula 9pm, ~ https://www.t~ 2020-01-01 06:20:56 Arts  
##  5     5 Shipping fuel~ Sulphur will ~ https://www.t~ 2020-01-01 07:00:58 News  
##  6     6 Western Balka~ The European ~ https://www.t~ 2020-01-01 08:00:01 News  
##  7     7 Welcome to th~ Australians f~ https://www.t~ 2020-01-01 08:50:00 News  
##  8     8 The Power of ~ Without wishi~ https://www.t~ 2020-01-01 09:01:00 Arts  
##  9     9 Top 10 books ~ The other nig~ https://www.t~ 2020-01-01 10:00:02 Arts  
## 10    10 Three cities,~ There is more~ https://www.t~ 2020-01-01 10:57:37 Sport 
## # ... with 9,990 more rows
```
…
# Word embeddings

These 10,000 articles consist of 7,824,081 words in total, and 117,188 unique words:

```r
guardian_larger_tokens <- guardian_larger %>% 
    unnest_tokens(word, body)

guardian_larger_tokens %>% 
    count(word, sort = TRUE)
```

```
## # A tibble: 117,188 x 2
##    word       n
##    <chr>  <int>
##  1 the   454164
##  2 to    226355
##  3 of    205956
##  4 and   197623
##  5 a     188465
##  6 in    159147
##  7 that   86125
##  8 is     77972
##  9 for    75943
## 10 on     67063
## # ... with 117,178 more rows
```
---

# Word embeddings

First, we nest all documents into their own tibbles, as we want to compute word associations based on their co-occurence within the same document. For example, the row of the first document now contains a nested tibble containing all 698 words as single rows of said document:

```r
guardian_nested <- guardian_larger_tokens %>% 
    select(id, word) %>% 
    nest(words = word)
guardian_nested
```

```
## # A tibble: 9,965 x 2
##       id words               
##    <int> <list>              
##  1     1 <tibble [698 x 1]>  
##  2     2 <tibble [254 x 1]>  
##  3     3 <tibble [462 x 1]>  
##  4     4 <tibble [515 x 1]>  
##  5     5 <tibble [933 x 1]>  
##  6     6 <tibble [929 x 1]>  
##  7     7 <tibble [437 x 1]>  
##  8     8 <tibble [1,215 x 1]>
##  9     9 <tibble [1,204 x 1]>
## 10    10 <tibble [784 x 1]>  
## # ... with 9,955 more rows
```
…
---

# Word embeddings

The result now contains *all* windows of 8 sequential words for each document. For example, the first document contains 698 words, and now 5,528 windows of 8 words:

```r
guardian_windows
```

```
## # A tibble: 9,965 x 2
##       id words               
##    <int> <list>              
##  1     1 <tibble [5,528 x 2]>
##  2     2 <tibble [1,976 x 2]>
##  3     3 <tibble [3,640 x 2]>
##  4     4 <tibble [4,064 x 2]>
##  5     5 <tibble [7,408 x 2]>
##  6     6 <tibble [7,376 x 2]>
##  7     7 <tibble [3,440 x 2]>
##  8     8 <tibble [9,664 x 2]>
##  9     9 <tibble [9,576 x 2]>
## 10    10 <tibble [6,216 x 2]>
## # ... with 9,955 more rows
```
…
---

# Word embeddings

Window `1_1` identifies the first 8 word window of the first document, window `1_2` the second 8 word window of the second document (note that this second window begins with the second word of the first window), etc.:

```r
guardian_windows_united
```

```
## # A tibble: 62,034,608 x 2
##    window_id word      
##    <chr>     <chr>     
##  1 1_1       there     
##  2 1_1       is        
##  3 1_1       a         
##  4 1_1       message   
##  5 1_1       woven     
##  6 1_1       into      
##  7 1_1       everything
##  8 1_1       the       
##  9 1_2       is        
## 10 1_2       a         
## # ... with 62,034,598 more rows
```
…
---

# Word embeddings

For each word, we now have the PMI of said word appearing with every other word in a 8-word window across the whole corpus. This results in 23,670,248 values for 117,188 unique words:

```r
guardian_pmi
```

```
## # A tibble: 23,670,248 x 3
##    item1      item2    pmi
##    <chr>      <chr>  <dbl>
##  1 is         there  1.17 
##  2 a          there  0.115
##  3 message    there -0.322
##  4 woven      there -1.25 
##  5 into       there -0.849
##  6 everything there -0.125
##  7 the        there -0.588
##  8 prime      there -1.43 
##  9 minister   there -1.01 
## 10 says       there  0.284
## # ... with 23,670,238 more rows
```
…
---

# Word embeddings

The resulting tibble now contains 100 values per word, giving the vector position of each word in each of the 100 dimensions. This way, we have reduced the size of our initial word matrix from 23,670,248 to 11,718,800 (117,188 unique words * 100 dimenions):

```r
guardian_word_vectors
```

```
## # A tibble: 11,718,800 x 3
##    item1               dimension      value
##    <chr>                   <int>      <dbl>
##  1 meyomesse                   1  0.000176 
##  2 enoh                        1  0.000183 
##  3 andrewwhitey                1  0.0000581
##  4 www.andrewwhite.nyc         1  0.0000425
##  5 15,040                      1  0.000277 
##  6 att                         1  0.000285 
##  7 chetnamakan                 1  0.0000833
##  8 leonrestaurants             1  0.0000878
##  9 depaola                     1 -0.0000819
## 10 tomie                       1 -0.000113 
## # ... with 11,718,790 more rows
```
…
---

# Word embeddings

Let's take a look at Joe Biden:

```r
nearest_neighbors(guardian_word_vectors, "biden")
```

```
## # A tibble: 117,188 x 2
##    item1        value
##    <chr>        <dbl>
##  1 biden        1    
##  2 biden’s      0.905
##  3 presidential 0.882
##  4 sanders      0.871
##  5 democrats    0.831
##  6 republicans  0.825
##  7 buttigieg    0.791
##  8 joe          0.789
##  9 democratic   0.786
## 10 bernie       0.785
## # ... with 117,178 more rows
```

---

# Word embeddings

Or at Jürgen Klopp:

```r
nearest_neighbors(guardian_word_vectors, "klopp")
```

```
## # A tibble: 117,188 x 2
##    item1       value
##    <chr>       <dbl>
##  1 klopp       1    
##  2 jürgen      0.917
##  3 mourinho    0.805
##  4 arteta      0.777
##  5 pep         0.767
##  6 lampard     0.764
##  7 liverpool’s 0.759
##  8 solskjær    0.755
##  9 gunnar      0.750
## 10 ole         0.732
## # ... with 117,178 more rows
```
…
