Studying News Use with Computational Methods
…
Before we start, let's add a column indicating the day the respective article was published in an extra column (you'll soon enough see why):

```r
guardian_tibble <- guardian_tibble %>% 
  mutate(day = lubridate::date(date))
```

```r
guardian_tibble %>% 
  select(date, day)
```

```
## # A tibble: 10,000 x 2
##    date                day       
##    <dttm>              <date>    
##  1 2020-01-01 00:09:23 2020-01-01
##  2 2020-01-01 00:34:18 2020-01-01
##  3 2020-01-01 02:59:09 2020-01-01
##  4 2020-01-01 06:20:56 2020-01-01
##  5 2020-01-01 07:00:58 2020-01-01
##  6 2020-01-01 08:00:01 2020-01-01
##  7 2020-01-01 08:50:00 2020-01-01
##  8 2020-01-01 09:01:00 2020-01-01
##  9 2020-01-01 10:00:02 2020-01-01
## 10 2020-01-01 10:57:37 2020-01-01
## # ... with 9,990 more rows
```
…
---

# Keywords in context

Use `kwic()` to get a view of up to 1000 occurences of a keyword in a given context window (default: 5 words before/after):

```r
kwic(guardian_tokens, "belarus") %>% 
  as_tibble()
```

```
## # A tibble: 66 x 7
##    docname  from    to pre                  keyword post                 pattern
##    <chr>   <int> <int> <chr>                <chr>   <chr>                <fct>  
##  1 959       609   609 and europe we went ~ belarus she said it was rea~ belarus
##  2 1633      445   445 jack on a stick as   belarus gives the uk a desu~ belarus
##  3 2033      321   321 that were stuck in ~ belarus and they were after~ belarus
##  4 2637      112   112 wants noah explaine~ belarus president alexander~ belarus
##  5 2945       62    62 the authoritarian p~ belarus and turkmenistan ov~ belarus
##  6 2978      196   196 countries president~ belarus has made the claim ~ belarus
##  7 3656       54    54 sporting plans alth~ belarus burundi tajikistan ~ belarus
##  8 3692       14    14 include thousands t~ belarus for ve day parade d~ belarus
##  9 3694      133   133 looked very differe~ belarus where elderly veter~ belarus
## 10 3901      350   350 action beyond the b~ belarus haaland's desire to~ belarus
## # ... with 56 more rows
```

---

# Keywords in context

Use `phrase()` for multi-word keywords and set window size with `window`:

```r
kwic(guardian_tokens, phrase("champions league"),
     window = 3) %>% 
  as_tibble()
```

```
## # A tibble: 321 x 7
##    docname  from    to pre             keyword      post             pattern    
##    <chr>   <int> <int> <chr>           <chr>        <chr>            <fct>      
##  1 20        126   127 restart of the  champions l~ all competition~ champions ~
##  2 29        171   172 to swap probab~ champions l~ qualification a~ champions ~
##  3 42       1331  1332 performance in~ champions l~ fixture suggest~ champions ~
##  4 96        419   420 the league and  champions l~ and his selecti~ champions ~
##  5 113        45    46 scored in genk~ champions l~ defeat by liver~ champions ~
##  6 138       148   149 qualify for the champions l~ victory against~ champions ~
##  7 138       396   397 rather than the champions l~ however there w~ champions ~
##  8 155       202   203 scored in barc~ champions l~ final defeat to  champions ~
##  9 155       312   313 victory in the  champions l~ final in june    champions ~
## 10 223       480   481 bus carrying l~ champions l~ winners drive p~ champions ~
## # ... with 311 more rows
```
---

# Collocations

*Collocations* define words directly appearing after each other and can be computed with `textstat_collocations()`. The output is sorted by the `\(\lambda\)` parameter, which increases if *exactly* this combination of words is more common than the same words appearing in other collocations. Note that this can be very computationally expensive, so adjust the `min_count()` parameter accordingly:

```r
guardian_tokens %>% 
  tokens_remove(stopwords("english")) %>% 
  textstat_collocations(min_count = 100) %>% 
  as_tibble()
```

```
## # A tibble: 615 x 6
##    collocation     count count_nested length lambda     z
##    <chr>           <int>        <int>  <dbl>  <dbl> <dbl>
##  1 prime minister   1880            0      2   8.92  169.
##  2 last week        1567            0      2   5.33  168.
##  3 last year        1694            0      2   4.95  167.
##  4 social media     1074            0      2   6.67  157.
##  5 public health    1196            0      2   5.17  149.
##  6 chief executive   986            0      2   8.39  149.
##  7 white house       871            0      2   6.45  145.
##  8 years ago        1081            0      2   6.22  142.
##  9 human rights      756            0      2   7.45  141.
## 10 climate change    733            0      2   6.54  135.
## # ... with 605 more rows
```
---

# Collocations

We can look for multi-word collocations of any size by adjusting the `size` parameter:

```r
guardian_tokens %>% 
  tokens_remove(stopwords("english")) %>% 
  textstat_collocations(min_count = 10, size = 4) %>% 
  as_tibble()
```

```
## # A tibble: 653 x 6
##    collocation                            count count_nested length lambda     z
##    <chr>                                  <int>        <int>  <dbl>  <dbl> <dbl>
##  1 andrés manuel lópez obrador               18            0      4  12.9   2.96
##  2 new york los angeles                      10            0      4  10.9   2.93
##  3 prime minister narendra modi              19            0      4  11.0   2.82
##  4 crown prince mohammed bin                 16            0      4   9.91  2.81
##  5 kenan malik observer columnist            12            0      4  10.0   2.55
##  6 prime minister boris johnson              52            0      4   6.42  2.39
##  7 department education spokesperson said    13            0      4   4.41  2.26
##  8 prime minister viktor orbán               20            0      4   8.51  2.20
##  9 thousands inboxes every weekday           20            0      4   7.51  2.06
## 10 ruby princess cruise ship                 13            0      4   5.81  2.04
## # ... with 643 more rows
```
…
---

# Cooccurences

A simple way to get at the most common cooccurences is by transforming the FCM into a Tibble with the `tidy()` function:

```r
guardian_fcm %>% 
  tidy() %>% 
  filter(document != term) %>% 
  arrange(desc(count))
```

```
## # A tibble: 16,598,119 x 3
##    document  term     count
##    <chr>     <chr>    <dbl>
##  1 died      hospital 25139
##  2 died      family   16223
##  3 president trump    15829
##  4 trump     biden    14949
##  5 hospital  family   14809
##  6 trump     trump's  13384
##  7 hospital  covid-19 12021
##  8 died      worked   12013
##  9 trump     election 11424
## 10 died      covid-19 11209
## # ... with 16,598,109 more rows
```

---

# Lexical complexity

*Lexical complexity* may be indicated through a document's readability and lexical diversity. `textstat_readability()` offers several readability measures, by default the `Flesch Reading Ease` which is based on the average sentence length and average syllable count per word (note that we need to use the corpus object in this case, as sentences are preserved here). Lower values indicate a lower readability:

```r
textstat_readability(guardian_corpus) %>% 
  as_tibble()
```

```
## # A tibble: 10,000 x 2
##    document Flesch
##    <chr>     <dbl>
##  1 1          39.6
##  2 2          60.7
##  3 3          48.7
##  4 4          52.5
##  5 5          42.0
##  6 6          46.9
##  7 7          45.8
##  8 8          55.2
##  9 9          59.9
## 10 10         47.6
## # ... with 9,990 more rows
```

---

# Lexical complexity

Accordingly, `textstat_lexdiv()` offers several measures to quantify the lexical diversity of documents. By default, the *Type-Token-Ratio* (unique tokens divided by number of tokens per document) is computed. Note that the *TTR* is heavily influenced by document length:

```r
textstat_lexdiv(guardian_dfm) %>% 
  as_tibble()
```

```
## # A tibble: 10,000 x 2
##    document   TTR
##    <chr>    <dbl>
##  1 1        0.453
##  2 2        0.634
##  3 3        0.438
##  4 4        0.669
##  5 5        0.429
##  6 6        0.427
##  7 7        0.657
##  8 8        0.509
##  9 9        0.508
## 10 10       0.491
## # ... with 9,990 more rows
```
---

# Keyness

Finally, *keyness* (and accordingly `textstat_keyness()`) presents a measure of the distinctivness of words for a certain (group of) documents as compared to other documents. For example, we can group our corpus by the `pillar` (Arts, Lifestyle, News, Opinion, or Sport) and get to the most distinctive terms for Sport documents by:  

```r
guardian_dfm %>% 
  dfm_group(pillar) %>% 
  textstat_keyness(target = "Sport") %>% 
  as_tibble()
```

```
## # A tibble: 135,480 x 5
##    feature    chi2     p n_target n_reference
##    <chr>     <dbl> <dbl>    <dbl>       <dbl>
##  1 league   14537.     0     2266         298
##  2 players  12498.     0     1962         270
##  3 game      8593.     0     1813         754
##  4 season    8592.     0     1824         770
##  5 football  6760.     0     1299         420
##  6 team      6221.     0     1770        1309
##  7 cup       6182.     0     1019         184
##  8 club      6046.     0     1292         554
##  9 player    4816.     0      828         181
## 10 ball      4537.     0      803         197
## # ... with 135,470 more rows
```
…
---

# Applying categorical dictionaries

`tidytext`'s `tidy()` function is again helpful in transforming and analyizing the results. For example, we can sort by count to get the document ids of the documents with the highest count of dictionary words:

```r
guardian_pop %>% 
  tidy() %>% 
  arrange(desc(count))
```

```
## # A tibble: 2,539 x 3
##    document term     count
##    <chr>    <chr>    <dbl>
##  1 526      populism    16
##  2 4257     populism    16
##  3 5610     populism    14
##  4 4799     populism    13
##  5 8717     populism    13
##  6 2727     populism    12
##  7 9436     populism    12
##  8 5169     populism    11
##  9 5761     populism    11
## 10 6214     populism    11
## # ... with 2,529 more rows
```
…
---

# Applying categorical dictionaries

Let's check again the documents with the highest share of populist terms:

```r
guardian_pop_prop %>% 
  tidy() %>% 
  arrange(desc(count))
```

```
## # A tibble: 2,539 x 3
##    document term      count
##    <chr>    <chr>     <dbl>
##  1 4799     populism 0.0216
##  2 526      populism 0.0171
##  3 5141     populism 0.0163
##  4 5761     populism 0.0146
##  5 4257     populism 0.0143
##  6 6259     populism 0.0139
##  7 188      populism 0.0136
##  8 5169     populism 0.0130
##  9 4817     populism 0.0126
## 10 6597     populism 0.0124
## # ... with 2,529 more rows
```
…
<center><img src="https://media.giphy.com/media/LmNwrBhejkK9EFP504/giphy.gif"></center>

---

# Applying weighted dictionaries

Applying weighted dictionaries is simple as well, but relies on `tidytext` again. `tidytext()` also provides a function `get_sentiments()` to access common sentiment dictionaries. The AFINN dictionary is one widely used weighted dictionary:

```r
get_sentiments("afinn")
```

```
## # A tibble: 2,477 x 2
##    word       value
##    <chr>      <dbl>
##  1 abandon       -2
##  2 abandoned     -2
##  3 abandons      -2
##  4 abducted      -2
##  5 abduction     -2
##  6 abductions    -2
##  7 abhor         -3
##  8 abhorred      -3
##  9 abhorrent     -3
## 10 abhors        -3
## # ... with 2,467 more rows
```
…
```
## Joining, by = "word"
```

```r
guardian_afinn_sentiments
```

```
## # A tibble: 421,362 x 4
##       id day        word      value
##    <int> <date>     <chr>     <dbl>
##  1     1 2020-01-01 carefully     2
##  2     1 2020-01-01 disaster     -2
##  3     1 2020-01-01 no           -1
##  4     1 2020-01-01 disasters    -2
##  5     1 2020-01-01 terrible     -3
##  6     1 2020-01-01 spirit        1
##  7     1 2020-01-01 disasters    -2
##  8     1 2020-01-01 panic        -3
##  9     1 2020-01-01 fire         -2
## 10     1 2020-01-01 crisis       -3
## # ... with 421,352 more rows
```
…
