Studying News Use with Computational Methods
…
<center><img src="https://media.giphy.com/media/LmNwrBhejkK9EFP504/giphy.gif"></center>

---

# Model intepretation

To extract the actual probability values, let's make use of the good ol' `tidy()` function again. If applied to an STM object, this by default extracts the `\(V \times K\)` matrix (called `\(\beta\)` in STM):

```r
terms_probs <- tidy(guardian_stm_40, matrix = "beta")
terms_probs
```

```
## # A tibble: 206,600 x 3
##    topic term      beta
##    <int> <chr>    <dbl>
##  1     1 100m  4.82e-14
##  2     2 100m  5.57e-24
##  3     3 100m  4.17e-16
##  4     4 100m  7.52e- 5
##  5     5 100m  1.90e- 5
##  6     6 100m  2.03e- 7
##  7     7 100m  9.58e-13
##  8     8 100m  4.18e-30
##  9     9 100m  2.26e- 7
## 10    10 100m  8.11e- 9
## # ... with 206,590 more rows
```

---

# Model interpretation

All beta values add up to `1` per topic:

```r
terms_probs %>% 
  group_by(topic) %>% 
  summarise(sum_beta = sum(beta))
```

```
## # A tibble: 40 x 2
##    topic sum_beta
##    <int>    <dbl>
##  1     1        1
##  2     2        1
##  3     3        1
##  4     4        1
##  5     5        1
##  6     6        1
##  7     7        1
##  8     8        1
##  9     9        1
## 10    10        1
## # ... with 30 more rows
```

---

# Model interpretation

To extract the `\(D \times K\)` matrix (called `\(\gamma\)` in STM), simply pass `matrix = "gamma"` to `tidy()`:

```r
doc_probs <- tidy(guardian_stm_40, matrix = "gamma", document_names = stm_dfm$meta$title)
doc_probs
```

```
## # A tibble: 398,600 x 3
##    document                                                        topic   gamma
##    <chr>                                                           <int>   <dbl>
##  1 We know this disaster is unprecedented – no amount of Scott Mo~     1 0.00218
##  2 Mariah Carey's Twitter account hacked on New Year's Eve             1 0.00319
##  3 Australia weather forecast: dangerous bushfire and heatwave co~     1 0.00610
##  4 TV tonight: Sherlock’s writers get their teeth into Dracula         1 0.00417
##  5 Shipping fuel regulation to cut sulphur levels comes into force     1 0.00444
##  6 Western Balkans left 'betrayed' by EU over membership talks         1 0.00134
##  7 Welcome to the roaring 2020s – inside the 3 January edition of~     1 0.00557
##  8 The Power of Bad and How to Overcome It review – professional ~     1 0.00594
##  9 Top 10 books about new beginnings                                   1 0.00220
## 10 Three cities, VAR and a $15m prize – ATP Cup prepares for laun~     1 0.00764
## # ... with 398,590 more rows
```

---

# Model interpretation

Gamma values add up to `1` per document:

```r
doc_probs %>% 
  group_by(document) %>% 
  summarise(sum_gamma = sum(gamma))
```

```
## # A tibble: 9,881 x 2
##    document                                                            sum_gamma
##    <chr>                                                                   <dbl>
##  1 '$1,000 per person should be the baseline': Andrew Yang on direct ~         1
##  2 'A beautiful change': Australia in bloom after drought-breaking ra~         1
##  3 'A chance to be more than a number': the female inmates podcasting~         1
##  4 'A climate change-scale problem': how the internet is destroying us         1
##  5 'A cry for help': Fifth of New Zealand high school pupils exposed ~         1
##  6 'A defining moment in the Middle East': the killing of Qassem Sule~         1
##  7 'A different twist': how school nativity plays have adapted to the~         1
##  8 'A game changer'. The UK's first LGBTQ+ extra-care housing scheme ~         1
##  9 'A ghost-town, tumbleweed quality': New York shuts down over coron~         1
## 10 'A giant has fallen': anti-apartheid activist Denis Goldberg dies ~         1
## # ... with 9,871 more rows
```
…
top_terms
```

```
## # A tibble: 40 x 2
##    topic          top_words                                                     
##    <chr>          <chr>                                                         
##  1 1_U.S. Electi~ trump, election, president, biden, us, trump's, donald        
##  2 2_Brexit       uk, government, could, new, last, time, make                  
##  3 3_Football     league, game, players, season, team, football, last           
##  4 Other_1        art, london, arts, theatre, work, artists, festival           
##  5 Other_10       people, health, coronavirus, home, covid-19, government, publ~
##  6 Other_11       workers, work, working, employees, app, staff, company        
##  7 Other_12       students, school, children, schools, education, university, u~
##  8 Other_13       fire, water, california, people, state, fires, across         
##  9 Other_14       people, says, many, like, us, work, time                      
## 10 Other_15       government, economy, economic, people, crisis, year, pandemic 
## # ... with 30 more rows
```
…
Similarly, extract mean topic proportions from `\(\theta\)`. Again, the proportion of the Brexit topic indicates that this was probably not the best specified topic:

```r
top_topics <- guardian_keyatm$theta %>% 
  as_tibble(rownames = "document") %>% 
  pivot_longer(-document, names_to = "topic", values_to = "theta") %>% 
  group_by(topic) %>% 
  summarise(mean_theta = mean(theta), .groups = "drop") %>% 
  arrange(desc(mean_theta))

top_topics
```

```
## # A tibble: 40 x 2
##    topic           mean_theta
##    <chr>                <dbl>
##  1 2_Brexit            0.239 
##  2 3_Football          0.0765
##  3 Other_34            0.0637
##  4 Other_30            0.0514
##  5 Other_14            0.0439
##  6 Other_8             0.0366
##  7 Other_22            0.0350
##  8 Other_17            0.0350
##  9 1_U.S. Election     0.0341
## 10 Other_9             0.0305
## # ... with 30 more rows
```
…
